('C:\\Users\\MyUser\\Documents\\PyArm\\build\\PyDatabase\\PKG-00.pkg',
 {'BINARY': 1,
  'DATA': 1,
  'EXECUTABLE': 1,
  'EXTENSION': 1,
  'PYMODULE': 1,
  'PYSOURCE': 1,
  'PYZ': 0},
 [('PYZ-00.pyz',
   'C:\\Users\\MyUser\\Documents\\PyArm\\build\\PyDatabase\\PYZ-00.pyz',
   'PYZ'),
  ('struct', 'c:\\python\\python38\\lib\\struct.pyo', 'PYMODULE'),
  ('pyimod01_os_path',
   'c:\\users\\myuser\\envs\\pyarm\\lib\\site-packages\\PyInstaller\\loader\\pyimod01_os_path.pyc',
   'PYMODULE'),
  ('pyimod02_archive',
   'c:\\users\\myuser\\envs\\pyarm\\lib\\site-packages\\PyInstaller\\loader\\pyimod02_archive.pyc',
   'PYMODULE'),
  ('pyimod03_importers',
   'c:\\users\\myuser\\envs\\pyarm\\lib\\site-packages\\PyInstaller\\loader\\pyimod03_importers.pyc',
   'PYMODULE'),
  ('pyiboot01_bootstrap',
   'c:\\users\\myuser\\envs\\pyarm\\lib\\site-packages\\PyInstaller\\loader\\pyiboot01_bootstrap.py',
   'PYSOURCE'),
  ('pyi_rth_multiprocessing',
   'C:\\Users\\MyUser\\Envs\\pyarm\\Lib\\site-packages\\PyInstaller\\hooks\\rthooks\\pyi_rth_multiprocessing.py',
   'PYSOURCE'),
  ('pyi_rth_win32api',
   'C:\\Users\\MyUser\\Envs\\pyarm\\Lib\\site-packages\\PyInstaller\\hooks\\rthooks\\pyi_rth_win32api.py',
   'PYSOURCE'),
  ('pyi_rth_pkgres',
   'C:\\Users\\MyUser\\Envs\\pyarm\\Lib\\site-packages\\PyInstaller\\hooks\\rthooks\\pyi_rth_pkgres.py',
   'PYSOURCE'),
  ('pyi_rth_win32comgenpy',
   'C:\\Users\\MyUser\\Envs\\pyarm\\Lib\\site-packages\\PyInstaller\\hooks\\rthooks\\pyi_rth_win32comgenpy.py',
   'PYSOURCE'),
  ('pyi_rth_pyqt5',
   'C:\\Users\\MyUser\\Envs\\pyarm\\Lib\\site-packages\\PyInstaller\\hooks\\rthooks\\pyi_rth_pyqt5.py',
   'PYSOURCE'),
  ('PyDatabase',
   'C:\\Users\\MyUser\\Documents\\PyArm\\PyDatabase.py',
   'PYSOURCE'),
  ('Crypto\\Hash\\_poly1305.pyd',
   'c:\\users\\myuser\\envs\\pyarm\\lib\\site-packages\\Crypto\\Hash\\_poly1305.pyd',
   'BINARY'),
  ('Crypto\\Cipher\\_raw_aes.pyd',
   'c:\\users\\myuser\\envs\\pyarm\\lib\\site-packages\\Crypto\\Cipher\\_raw_aes.pyd',
   'BINARY'),
  ('Crypto\\Cipher\\_raw_cfb.pyd',
   'c:\\users\\myuser\\envs\\pyarm\\lib\\site-packages\\Crypto\\Cipher\\_raw_cfb.pyd',
   'BINARY'),
  ('Crypto\\Hash\\_ghash_portable.pyd',
   'c:\\users\\myuser\\envs\\pyarm\\lib\\site-packages\\Crypto\\Hash\\_ghash_portable.pyd',
   'BINARY'),
  ('Crypto\\Protocol\\_scrypt.pyd',
   'c:\\users\\myuser\\envs\\pyarm\\lib\\site-packages\\Crypto\\Protocol\\_scrypt.pyd',
   'BINARY'),
  ('Crypto\\Hash\\_SHA384.pyd',
   'c:\\users\\myuser\\envs\\pyarm\\lib\\site-packages\\Crypto\\Hash\\_SHA384.pyd',
   'BINARY'),
  ('Crypto\\Hash\\_SHA512.pyd',
   'c:\\users\\myuser\\envs\\pyarm\\lib\\site-packages\\Crypto\\Hash\\_SHA512.pyd',
   'BINARY'),
  ('PyQt5\\Qt\\plugins\\imageformats\\qgif.dll',
   'C:\\users\\myuser\\envs\\pyarm\\lib\\site-packages\\PyQt5\\Qt5\\plugins\\imageformats\\qgif.dll',
   'BINARY'),
  ('Crypto\\Hash\\_SHA256.pyd',
   'c:\\users\\myuser\\envs\\pyarm\\lib\\site-packages\\Crypto\\Hash\\_SHA256.pyd',
   'BINARY'),
  ('Crypto\\Cipher\\_Salsa20.pyd',
   'c:\\users\\myuser\\envs\\pyarm\\lib\\site-packages\\Crypto\\Cipher\\_Salsa20.pyd',
   'BINARY'),
  ('PyQt5\\Qt\\plugins\\platforms\\qwebgl.dll',
   'C:\\users\\myuser\\envs\\pyarm\\lib\\site-packages\\PyQt5\\Qt5\\plugins\\platforms\\qwebgl.dll',
   'BINARY'),
  ('PyQt5\\Qt\\plugins\\imageformats\\qicns.dll',
   'C:\\users\\myuser\\envs\\pyarm\\lib\\site-packages\\PyQt5\\Qt5\\plugins\\imageformats\\qicns.dll',
   'BINARY'),
  ('PyQt5\\Qt\\plugins\\imageformats\\qwbmp.dll',
   'C:\\users\\myuser\\envs\\pyarm\\lib\\site-packages\\PyQt5\\Qt5\\plugins\\imageformats\\qwbmp.dll',
   'BINARY'),
  ('Crypto\\Hash\\_MD2.pyd',
   'c:\\users\\myuser\\envs\\pyarm\\lib\\site-packages\\Crypto\\Hash\\_MD2.pyd',
   'BINARY'),
  ('Crypto\\Hash\\_keccak.pyd',
   'c:\\users\\myuser\\envs\\pyarm\\lib\\site-packages\\Crypto\\Hash\\_keccak.pyd',
   'BINARY'),
  ('Crypto\\Hash\\_MD5.pyd',
   'c:\\users\\myuser\\envs\\pyarm\\lib\\site-packages\\Crypto\\Hash\\_MD5.pyd',
   'BINARY'),
  ('Crypto\\Hash\\_MD4.pyd',
   'c:\\users\\myuser\\envs\\pyarm\\lib\\site-packages\\Crypto\\Hash\\_MD4.pyd',
   'BINARY'),
  ('Crypto\\Cipher\\_raw_cbc.pyd',
   'c:\\users\\myuser\\envs\\pyarm\\lib\\site-packages\\Crypto\\Cipher\\_raw_cbc.pyd',
   'BINARY'),
  ('PyQt5\\Qt\\plugins\\platforms\\qwindows.dll',
   'C:\\users\\myuser\\envs\\pyarm\\lib\\site-packages\\PyQt5\\Qt5\\plugins\\platforms\\qwindows.dll',
   'BINARY'),
  ('Crypto\\Cipher\\_raw_ofb.pyd',
   'c:\\users\\myuser\\envs\\pyarm\\lib\\site-packages\\Crypto\\Cipher\\_raw_ofb.pyd',
   'BINARY'),
  ('Crypto\\Cipher\\_raw_cast.pyd',
   'c:\\users\\myuser\\envs\\pyarm\\lib\\site-packages\\Crypto\\Cipher\\_raw_cast.pyd',
   'BINARY'),
  ('Crypto\\Math\\_modexp.pyd',
   'c:\\users\\myuser\\envs\\pyarm\\lib\\site-packages\\Crypto\\Math\\_modexp.pyd',
   'BINARY'),
  ('PyQt5\\Qt\\plugins\\imageformats\\qtiff.dll',
   'C:\\users\\myuser\\envs\\pyarm\\lib\\site-packages\\PyQt5\\Qt5\\plugins\\imageformats\\qtiff.dll',
   'BINARY'),
  ('Crypto\\Cipher\\_chacha20.pyd',
   'c:\\users\\myuser\\envs\\pyarm\\lib\\site-packages\\Crypto\\Cipher\\_chacha20.pyd',
   'BINARY'),
  ('PyQt5\\Qt\\plugins\\imageformats\\qtga.dll',
   'C:\\users\\myuser\\envs\\pyarm\\lib\\site-packages\\PyQt5\\Qt5\\plugins\\imageformats\\qtga.dll',
   'BINARY'),
  ('opengl32sw.dll',
   'C:\\users\\myuser\\envs\\pyarm\\lib\\site-packages\\PyQt5\\Qt5\\bin\\opengl32sw.dll',
   'BINARY'),
  ('Crypto\\Cipher\\_raw_des3.pyd',
   'c:\\users\\myuser\\envs\\pyarm\\lib\\site-packages\\Crypto\\Cipher\\_raw_des3.pyd',
   'BINARY'),
  ('PyQt5\\Qt\\plugins\\imageformats\\qwebp.dll',
   'C:\\users\\myuser\\envs\\pyarm\\lib\\site-packages\\PyQt5\\Qt5\\plugins\\imageformats\\qwebp.dll',
   'BINARY'),
  ('d3dcompiler_47.dll',
   'C:\\users\\myuser\\envs\\pyarm\\lib\\site-packages\\PyQt5\\Qt5\\bin\\d3dcompiler_47.dll',
   'BINARY'),
  ('libEGL.dll',
   'C:\\users\\myuser\\envs\\pyarm\\lib\\site-packages\\PyQt5\\Qt5\\bin\\libEGL.dll',
   'BINARY'),
  ('Crypto\\PublicKey\\_ec_ws.pyd',
   'c:\\users\\myuser\\envs\\pyarm\\lib\\site-packages\\Crypto\\PublicKey\\_ec_ws.pyd',
   'BINARY'),
  ('PyQt5\\Qt\\plugins\\platforms\\qminimal.dll',
   'C:\\users\\myuser\\envs\\pyarm\\lib\\site-packages\\PyQt5\\Qt5\\plugins\\platforms\\qminimal.dll',
   'BINARY'),
  ('Crypto\\Cipher\\_ARC4.pyd',
   'c:\\users\\myuser\\envs\\pyarm\\lib\\site-packages\\Crypto\\Cipher\\_ARC4.pyd',
   'BINARY'),
  ('PyQt5\\Qt\\plugins\\platforms\\qoffscreen.dll',
   'C:\\users\\myuser\\envs\\pyarm\\lib\\site-packages\\PyQt5\\Qt5\\plugins\\platforms\\qoffscreen.dll',
   'BINARY'),
  ('Crypto\\Cipher\\_raw_ctr.pyd',
   'c:\\users\\myuser\\envs\\pyarm\\lib\\site-packages\\Crypto\\Cipher\\_raw_ctr.pyd',
   'BINARY'),
  ('Crypto\\Cipher\\_raw_aesni.pyd',
   'c:\\users\\myuser\\envs\\pyarm\\lib\\site-packages\\Crypto\\Cipher\\_raw_aesni.pyd',
   'BINARY'),
  ('pywintypes38.dll',
   'c:\\users\\myuser\\envs\\pyarm\\lib\\site-packages\\pywin32_system32\\pywintypes38.dll',
   'BINARY'),
  ('Crypto\\Hash\\_SHA1.pyd',
   'c:\\users\\myuser\\envs\\pyarm\\lib\\site-packages\\Crypto\\Hash\\_SHA1.pyd',
   'BINARY'),
  ('libGLESv2.dll',
   'C:\\users\\myuser\\envs\\pyarm\\lib\\site-packages\\PyQt5\\Qt5\\bin\\libGLESv2.dll',
   'BINARY'),
  ('PyQt5\\Qt\\plugins\\imageformats\\qico.dll',
   'C:\\users\\myuser\\envs\\pyarm\\lib\\site-packages\\PyQt5\\Qt5\\plugins\\imageformats\\qico.dll',
   'BINARY'),
  ('Crypto\\Cipher\\_raw_blowfish.pyd',
   'c:\\users\\myuser\\envs\\pyarm\\lib\\site-packages\\Crypto\\Cipher\\_raw_blowfish.pyd',
   'BINARY'),
  ('Crypto\\Hash\\_SHA224.pyd',
   'c:\\users\\myuser\\envs\\pyarm\\lib\\site-packages\\Crypto\\Hash\\_SHA224.pyd',
   'BINARY'),
  ('Crypto\\Hash\\_BLAKE2b.pyd',
   'c:\\users\\myuser\\envs\\pyarm\\lib\\site-packages\\Crypto\\Hash\\_BLAKE2b.pyd',
   'BINARY'),
  ('PyQt5\\Qt\\plugins\\iconengines\\qsvgicon.dll',
   'C:\\users\\myuser\\envs\\pyarm\\lib\\site-packages\\PyQt5\\Qt5\\plugins\\iconengines\\qsvgicon.dll',
   'BINARY'),
  ('PyQt5\\Qt\\plugins\\platformthemes\\qxdgdesktopportal.dll',
   'C:\\users\\myuser\\envs\\pyarm\\lib\\site-packages\\PyQt5\\Qt5\\plugins\\platformthemes\\qxdgdesktopportal.dll',
   'BINARY'),
  ('Crypto\\Cipher\\_raw_ecb.pyd',
   'c:\\users\\myuser\\envs\\pyarm\\lib\\site-packages\\Crypto\\Cipher\\_raw_ecb.pyd',
   'BINARY'),
  ('PyQt5\\Qt\\plugins\\imageformats\\qjpeg.dll',
   'C:\\users\\myuser\\envs\\pyarm\\lib\\site-packages\\PyQt5\\Qt5\\plugins\\imageformats\\qjpeg.dll',
   'BINARY'),
  ('Crypto\\Cipher\\_raw_des.pyd',
   'c:\\users\\myuser\\envs\\pyarm\\lib\\site-packages\\Crypto\\Cipher\\_raw_des.pyd',
   'BINARY'),
  ('PyQt5\\Qt\\plugins\\imageformats\\qsvg.dll',
   'C:\\users\\myuser\\envs\\pyarm\\lib\\site-packages\\PyQt5\\Qt5\\plugins\\imageformats\\qsvg.dll',
   'BINARY'),
  ('PyQt5\\Qt\\plugins\\styles\\qwindowsvistastyle.dll',
   'C:\\users\\myuser\\envs\\pyarm\\lib\\site-packages\\PyQt5\\Qt5\\plugins\\styles\\qwindowsvistastyle.dll',
   'BINARY'),
  ('Crypto\\Hash\\_ghash_clmul.pyd',
   'c:\\users\\myuser\\envs\\pyarm\\lib\\site-packages\\Crypto\\Hash\\_ghash_clmul.pyd',
   'BINARY'),
  ('Crypto\\Hash\\_BLAKE2s.pyd',
   'c:\\users\\myuser\\envs\\pyarm\\lib\\site-packages\\Crypto\\Hash\\_BLAKE2s.pyd',
   'BINARY'),
  ('Crypto\\Util\\_cpuid_c.pyd',
   'c:\\users\\myuser\\envs\\pyarm\\lib\\site-packages\\Crypto\\Util\\_cpuid_c.pyd',
   'BINARY'),
  ('Crypto\\Hash\\_RIPEMD160.pyd',
   'c:\\users\\myuser\\envs\\pyarm\\lib\\site-packages\\Crypto\\Hash\\_RIPEMD160.pyd',
   'BINARY'),
  ('Crypto\\Cipher\\_raw_eksblowfish.pyd',
   'c:\\users\\myuser\\envs\\pyarm\\lib\\site-packages\\Crypto\\Cipher\\_raw_eksblowfish.pyd',
   'BINARY'),
  ('Crypto\\Util\\_strxor.pyd',
   'c:\\users\\myuser\\envs\\pyarm\\lib\\site-packages\\Crypto\\Util\\_strxor.pyd',
   'BINARY'),
  ('Crypto\\Cipher\\_raw_ocb.pyd',
   'c:\\users\\myuser\\envs\\pyarm\\lib\\site-packages\\Crypto\\Cipher\\_raw_ocb.pyd',
   'BINARY'),
  ('Crypto\\Cipher\\_raw_arc2.pyd',
   'c:\\users\\myuser\\envs\\pyarm\\lib\\site-packages\\Crypto\\Cipher\\_raw_arc2.pyd',
   'BINARY'),
  ('pythoncom38.dll',
   'c:\\users\\myuser\\envs\\pyarm\\lib\\site-packages\\pywin32_system32\\pythoncom38.dll',
   'BINARY'),
  ('win32trace',
   'c:\\users\\myuser\\envs\\pyarm\\lib\\site-packages\\win32\\win32trace.pyd',
   'EXTENSION'),
  ('win32ui',
   'c:\\users\\myuser\\envs\\pyarm\\lib\\site-packages\\Pythonwin\\win32ui.pyd',
   'EXTENSION'),
  ('_lzma', 'c:\\python\\python38\\DLLs\\_lzma.pyd', 'EXTENSION'),
  ('_bz2', 'c:\\python\\python38\\DLLs\\_bz2.pyd', 'EXTENSION'),
  ('unicodedata', 'c:\\python\\python38\\DLLs\\unicodedata.pyd', 'EXTENSION'),
  ('select', 'c:\\python\\python38\\DLLs\\select.pyd', 'EXTENSION'),
  ('_socket', 'c:\\python\\python38\\DLLs\\_socket.pyd', 'EXTENSION'),
  ('_hashlib', 'c:\\python\\python38\\DLLs\\_hashlib.pyd', 'EXTENSION'),
  ('_overlapped', 'c:\\python\\python38\\DLLs\\_overlapped.pyd', 'EXTENSION'),
  ('_ssl', 'c:\\python\\python38\\DLLs\\_ssl.pyd', 'EXTENSION'),
  ('_asyncio', 'c:\\python\\python38\\DLLs\\_asyncio.pyd', 'EXTENSION'),
  ('_queue', 'c:\\python\\python38\\DLLs\\_queue.pyd', 'EXTENSION'),
  ('_ctypes', 'c:\\python\\python38\\DLLs\\_ctypes.pyd', 'EXTENSION'),
  ('_multiprocessing',
   'c:\\python\\python38\\DLLs\\_multiprocessing.pyd',
   'EXTENSION'),
  ('pyexpat', 'c:\\python\\python38\\DLLs\\pyexpat.pyd', 'EXTENSION'),
  ('_decimal', 'c:\\python\\python38\\DLLs\\_decimal.pyd', 'EXTENSION'),
  ('_win32sysloader',
   'c:\\users\\myuser\\envs\\pyarm\\lib\\site-packages\\win32\\_win32sysloader.pyd',
   'EXTENSION'),
  ('win32api',
   'c:\\users\\myuser\\envs\\pyarm\\lib\\site-packages\\win32\\win32api.pyd',
   'EXTENSION'),
  ('win32wnet',
   'c:\\users\\myuser\\envs\\pyarm\\lib\\site-packages\\win32\\win32wnet.pyd',
   'EXTENSION'),
  ('win32com.shell.shell',
   'c:\\users\\myuser\\envs\\pyarm\\lib\\site-packages\\win32comext\\shell\\shell.pyd',
   'EXTENSION'),
  ('win32evtlog',
   'c:\\users\\myuser\\envs\\pyarm\\lib\\site-packages\\win32\\win32evtlog.pyd',
   'EXTENSION'),
  ('psycopg2._psycopg',
   'c:\\users\\myuser\\envs\\pyarm\\lib\\site-packages\\psycopg2\\_psycopg.cp38-win_amd64.pyd',
   'EXTENSION'),
  ('_cffi_backend',
   'c:\\users\\myuser\\envs\\pyarm\\lib\\site-packages\\_cffi_backend.cp38-win_amd64.pyd',
   'EXTENSION'),
  ('PyQt5.sip',
   'c:\\users\\myuser\\envs\\pyarm\\lib\\site-packages\\PyQt5\\sip.cp38-win_amd64.pyd',
   'EXTENSION'),
  ('PyQt5.QtCore',
   'c:\\users\\myuser\\envs\\pyarm\\lib\\site-packages\\PyQt5\\QtCore.pyd',
   'EXTENSION'),
  ('PyQt5.QtGui',
   'c:\\users\\myuser\\envs\\pyarm\\lib\\site-packages\\PyQt5\\QtGui.pyd',
   'EXTENSION'),
  ('PyQt5.QtWidgets',
   'c:\\users\\myuser\\envs\\pyarm\\lib\\site-packages\\PyQt5\\QtWidgets.pyd',
   'EXTENSION'),
  ('VCRUNTIME140.dll', 'c:\\python\\python38\\VCRUNTIME140.dll', 'BINARY'),
  ('Qt5Gui.dll',
   'c:\\users\\myuser\\envs\\pyarm\\lib\\site-packages\\PyQt5\\Qt5\\bin\\Qt5Gui.dll',
   'BINARY'),
  ('Qt5Core.dll',
   'c:\\users\\myuser\\envs\\pyarm\\lib\\site-packages\\PyQt5\\Qt5\\bin\\Qt5Core.dll',
   'BINARY'),
  ('Qt5WebSockets.dll',
   'c:\\users\\myuser\\envs\\pyarm\\lib\\site-packages\\PyQt5\\Qt5\\bin\\Qt5WebSockets.dll',
   'BINARY'),
  ('Qt5Quick.dll',
   'c:\\users\\myuser\\envs\\pyarm\\lib\\site-packages\\PyQt5\\Qt5\\bin\\Qt5Quick.dll',
   'BINARY'),
  ('Qt5Network.dll',
   'c:\\users\\myuser\\envs\\pyarm\\lib\\site-packages\\PyQt5\\Qt5\\bin\\Qt5Network.dll',
   'BINARY'),
  ('VCRUNTIME140_1.dll', 'c:\\python\\python38\\VCRUNTIME140_1.dll', 'BINARY'),
  ('python38.dll', 'c:\\python\\python38\\python38.dll', 'BINARY'),
  ('MSVCP140.dll',
   'C:\\users\\myuser\\envs\\pyarm\\lib\\site-packages\\PyQt5\\Qt5\\bin\\MSVCP140.dll',
   'BINARY'),
  ('Qt5Svg.dll',
   'c:\\users\\myuser\\envs\\pyarm\\lib\\site-packages\\PyQt5\\Qt5\\bin\\Qt5Svg.dll',
   'BINARY'),
  ('Qt5DBus.dll',
   'c:\\users\\myuser\\envs\\pyarm\\lib\\site-packages\\PyQt5\\Qt5\\bin\\Qt5DBus.dll',
   'BINARY'),
  ('Qt5Widgets.dll',
   'c:\\users\\myuser\\envs\\pyarm\\lib\\site-packages\\PyQt5\\Qt5\\bin\\Qt5Widgets.dll',
   'BINARY'),
  ('mfc140u.dll',
   'c:\\users\\myuser\\envs\\pyarm\\lib\\site-packages\\Pythonwin\\mfc140u.dll',
   'BINARY'),
  ('libcrypto-1_1.dll',
   'c:\\python\\python38\\DLLs\\libcrypto-1_1.dll',
   'BINARY'),
  ('libssl-1_1.dll', 'c:\\python\\python38\\DLLs\\libssl-1_1.dll', 'BINARY'),
  ('libffi-7.dll', 'c:\\python\\python38\\DLLs\\libffi-7.dll', 'BINARY'),
  ('python3.dll', 'c:\\python\\python38\\python3.dll', 'BINARY'),
  ('MSVCP140_1.dll',
   'c:\\users\\myuser\\envs\\pyarm\\lib\\site-packages\\PyQt5\\Qt5\\bin\\MSVCP140_1.dll',
   'BINARY'),
  ('Qt5Qml.dll',
   'c:\\users\\myuser\\envs\\pyarm\\lib\\site-packages\\PyQt5\\Qt5\\bin\\Qt5Qml.dll',
   'BINARY'),
  ('Qt5QmlModels.dll',
   'c:\\users\\myuser\\envs\\pyarm\\lib\\site-packages\\PyQt5\\Qt5\\bin\\Qt5QmlModels.dll',
   'BINARY'),
  ('base_library.zip',
   'C:\\Users\\MyUser\\Documents\\PyArm\\build\\PyDatabase\\base_library.zip',
   'DATA'),
  ('PyQt5\\Qt\\translations\\qtbase_fi.qm',
   'C:\\users\\myuser\\envs\\pyarm\\lib\\site-packages\\PyQt5\\Qt5\\translations\\qtbase_fi.qm',
   'DATA'),
  ('PyQt5\\Qt\\translations\\qtbase_fr.qm',
   'C:\\users\\myuser\\envs\\pyarm\\lib\\site-packages\\PyQt5\\Qt5\\translations\\qtbase_fr.qm',
   'DATA'),
  ('PyQt5\\Qt\\translations\\qtbase_en.qm',
   'C:\\users\\myuser\\envs\\pyarm\\lib\\site-packages\\PyQt5\\Qt5\\translations\\qtbase_en.qm',
   'DATA'),
  ('PyQt5\\Qt\\translations\\qtbase_ru.qm',
   'C:\\users\\myuser\\envs\\pyarm\\lib\\site-packages\\PyQt5\\Qt5\\translations\\qtbase_ru.qm',
   'DATA'),
  ('PyQt5\\Qt\\translations\\qtbase_pl.qm',
   'C:\\users\\myuser\\envs\\pyarm\\lib\\site-packages\\PyQt5\\Qt5\\translations\\qtbase_pl.qm',
   'DATA'),
  ('PyQt5\\Qt\\translations\\qtbase_ca.qm',
   'C:\\users\\myuser\\envs\\pyarm\\lib\\site-packages\\PyQt5\\Qt5\\translations\\qtbase_ca.qm',
   'DATA'),
  ('PyQt5\\Qt\\translations\\qtbase_sk.qm',
   'C:\\users\\myuser\\envs\\pyarm\\lib\\site-packages\\PyQt5\\Qt5\\translations\\qtbase_sk.qm',
   'DATA'),
  ('PyQt5\\Qt\\translations\\qtbase_bg.qm',
   'C:\\users\\myuser\\envs\\pyarm\\lib\\site-packages\\PyQt5\\Qt5\\translations\\qtbase_bg.qm',
   'DATA'),
  ('PyQt5\\Qt\\translations\\qtbase_tr.qm',
   'C:\\users\\myuser\\envs\\pyarm\\lib\\site-packages\\PyQt5\\Qt5\\translations\\qtbase_tr.qm',
   'DATA'),
  ('PyQt5\\Qt\\translations\\qtbase_he.qm',
   'C:\\users\\myuser\\envs\\pyarm\\lib\\site-packages\\PyQt5\\Qt5\\translations\\qtbase_he.qm',
   'DATA'),
  ('PyQt5\\Qt\\translations\\qtbase_lv.qm',
   'C:\\users\\myuser\\envs\\pyarm\\lib\\site-packages\\PyQt5\\Qt5\\translations\\qtbase_lv.qm',
   'DATA'),
  ('PyQt5\\Qt\\translations\\qtbase_de.qm',
   'C:\\users\\myuser\\envs\\pyarm\\lib\\site-packages\\PyQt5\\Qt5\\translations\\qtbase_de.qm',
   'DATA'),
  ('PyQt5\\Qt\\translations\\qtbase_hu.qm',
   'C:\\users\\myuser\\envs\\pyarm\\lib\\site-packages\\PyQt5\\Qt5\\translations\\qtbase_hu.qm',
   'DATA'),
  ('PyQt5\\Qt\\translations\\qtbase_it.qm',
   'C:\\users\\myuser\\envs\\pyarm\\lib\\site-packages\\PyQt5\\Qt5\\translations\\qtbase_it.qm',
   'DATA'),
  ('PyQt5\\Qt\\translations\\qtbase_da.qm',
   'C:\\users\\myuser\\envs\\pyarm\\lib\\site-packages\\PyQt5\\Qt5\\translations\\qtbase_da.qm',
   'DATA'),
  ('PyQt5\\Qt\\translations\\qtbase_uk.qm',
   'C:\\users\\myuser\\envs\\pyarm\\lib\\site-packages\\PyQt5\\Qt5\\translations\\qtbase_uk.qm',
   'DATA'),
  ('PyQt5\\Qt\\translations\\qtbase_ko.qm',
   'C:\\users\\myuser\\envs\\pyarm\\lib\\site-packages\\PyQt5\\Qt5\\translations\\qtbase_ko.qm',
   'DATA'),
  ('PyQt5\\Qt\\translations\\qtbase_ar.qm',
   'C:\\users\\myuser\\envs\\pyarm\\lib\\site-packages\\PyQt5\\Qt5\\translations\\qtbase_ar.qm',
   'DATA'),
  ('PyQt5\\Qt\\translations\\qtbase_cs.qm',
   'C:\\users\\myuser\\envs\\pyarm\\lib\\site-packages\\PyQt5\\Qt5\\translations\\qtbase_cs.qm',
   'DATA'),
  ('PyQt5\\Qt\\translations\\qtbase_gd.qm',
   'C:\\users\\myuser\\envs\\pyarm\\lib\\site-packages\\PyQt5\\Qt5\\translations\\qtbase_gd.qm',
   'DATA'),
  ('PyQt5\\Qt\\translations\\qtbase_zh_TW.qm',
   'C:\\users\\myuser\\envs\\pyarm\\lib\\site-packages\\PyQt5\\Qt5\\translations\\qtbase_zh_TW.qm',
   'DATA'),
  ('PyQt5\\Qt\\translations\\qtbase_es.qm',
   'C:\\users\\myuser\\envs\\pyarm\\lib\\site-packages\\PyQt5\\Qt5\\translations\\qtbase_es.qm',
   'DATA'),
  ('PyQt5\\Qt\\translations\\qtbase_ja.qm',
   'C:\\users\\myuser\\envs\\pyarm\\lib\\site-packages\\PyQt5\\Qt5\\translations\\qtbase_ja.qm',
   'DATA'),
  ('PyDatabase.exe.manifest',
   'C:\\Users\\MyUser\\Documents\\PyArm\\build\\PyDatabase\\PyDatabase.exe.manifest',
   'BINARY'),
  ('pyi-windows-manifest-filename PyDatabase.exe.manifest', '', 'OPTION')],
 False,
 False,
 False,
 [])
