('C:\\Users\\MyUser\\Documents\\PyArm\\build\\PyDatabase\\PYZ-00.pyz',
 [('win32com',
   'c:\\users\\myuser\\envs\\pyarm\\lib\\site-packages\\win32com\\__init__.py',
   'PYMODULE'),
  ('win32com.server.util',
   'c:\\users\\myuser\\envs\\pyarm\\lib\\site-packages\\win32com\\server\\util.py',
   'PYMODULE'),
  ('win32com.server.dispatcher',
   'c:\\users\\myuser\\envs\\pyarm\\lib\\site-packages\\win32com\\server\\dispatcher.py',
   'PYMODULE'),
  ('win32traceutil',
   'c:\\users\\myuser\\envs\\pyarm\\lib\\site-packages\\win32\\lib\\win32traceutil.py',
   'PYMODULE'),
  ('win32com.util',
   'c:\\users\\myuser\\envs\\pyarm\\lib\\site-packages\\win32com\\util.py',
   'PYMODULE'),
  ('win32con',
   'c:\\users\\myuser\\envs\\pyarm\\lib\\site-packages\\win32\\lib\\win32con.py',
   'PYMODULE'),
  ('win32com.server.exception',
   'c:\\users\\myuser\\envs\\pyarm\\lib\\site-packages\\win32com\\server\\exception.py',
   'PYMODULE'),
  ('winerror',
   'c:\\users\\myuser\\envs\\pyarm\\lib\\site-packages\\win32\\lib\\winerror.py',
   'PYMODULE'),
  ('win32com.server.policy',
   'c:\\users\\myuser\\envs\\pyarm\\lib\\site-packages\\win32com\\server\\policy.py',
   'PYMODULE'),
  ('win32com.client',
   'c:\\users\\myuser\\envs\\pyarm\\lib\\site-packages\\win32com\\client\\__init__.py',
   'PYMODULE'),
  ('win32com.client.makepy',
   'c:\\users\\myuser\\envs\\pyarm\\lib\\site-packages\\win32com\\client\\makepy.py',
   'PYMODULE'),
  ('getopt', 'c:\\python\\python38\\lib\\getopt.py', 'PYMODULE'),
  ('gettext', 'c:\\python\\python38\\lib\\gettext.py', 'PYMODULE'),
  ('copy', 'c:\\python\\python38\\lib\\copy.py', 'PYMODULE'),
  ('struct', 'c:\\python\\python38\\lib\\struct.py', 'PYMODULE'),
  ('pywin.dialogs.status',
   'c:\\users\\myuser\\envs\\pyarm\\lib\\site-packages\\Pythonwin\\pywin\\dialogs\\status.py',
   'PYMODULE'),
  ('pywin.mfc.thread',
   'c:\\users\\myuser\\envs\\pyarm\\lib\\site-packages\\Pythonwin\\pywin\\mfc\\thread.py',
   'PYMODULE'),
  ('pywin.mfc.object',
   'c:\\users\\myuser\\envs\\pyarm\\lib\\site-packages\\Pythonwin\\pywin\\mfc\\object.py',
   'PYMODULE'),
  ('pywin.mfc.dialog',
   'c:\\users\\myuser\\envs\\pyarm\\lib\\site-packages\\Pythonwin\\pywin\\mfc\\dialog.py',
   'PYMODULE'),
  ('pywin.mfc.window',
   'c:\\users\\myuser\\envs\\pyarm\\lib\\site-packages\\Pythonwin\\pywin\\mfc\\window.py',
   'PYMODULE'),
  ('pywin.mfc',
   'c:\\users\\myuser\\envs\\pyarm\\lib\\site-packages\\Pythonwin\\pywin\\mfc\\__init__.py',
   'PYMODULE'),
  ('pywin.dialogs',
   'c:\\users\\myuser\\envs\\pyarm\\lib\\site-packages\\Pythonwin\\pywin\\dialogs\\__init__.py',
   'PYMODULE'),
  ('pywin',
   'c:\\users\\myuser\\envs\\pyarm\\lib\\site-packages\\Pythonwin\\pywin\\__init__.py',
   'PYMODULE'),
  ('importlib',
   'c:\\python\\python38\\lib\\importlib\\__init__.py',
   'PYMODULE'),
  ('importlib.machinery',
   'c:\\python\\python38\\lib\\importlib\\machinery.py',
   'PYMODULE'),
  ('importlib._bootstrap_external',
   'c:\\python\\python38\\lib\\importlib\\_bootstrap_external.py',
   'PYMODULE'),
  ('importlib.metadata',
   'c:\\python\\python38\\lib\\importlib\\metadata.py',
   'PYMODULE'),
  ('importlib.abc', 'c:\\python\\python38\\lib\\importlib\\abc.py', 'PYMODULE'),
  ('contextlib', 'c:\\python\\python38\\lib\\contextlib.py', 'PYMODULE'),
  ('posixpath', 'c:\\python\\python38\\lib\\posixpath.py', 'PYMODULE'),
  ('genericpath', 'c:\\python\\python38\\lib\\genericpath.py', 'PYMODULE'),
  ('stat', 'c:\\python\\python38\\lib\\stat.py', 'PYMODULE'),
  ('zipfile', 'c:\\python\\python38\\lib\\zipfile.py', 'PYMODULE'),
  ('argparse', 'c:\\python\\python38\\lib\\argparse.py', 'PYMODULE'),
  ('textwrap', 'c:\\python\\python38\\lib\\textwrap.py', 'PYMODULE'),
  ('py_compile', 'c:\\python\\python38\\lib\\py_compile.py', 'PYMODULE'),
  ('ntpath', 'c:\\python\\python38\\lib\\ntpath.py', 'PYMODULE'),
  ('string', 'c:\\python\\python38\\lib\\string.py', 'PYMODULE'),
  ('lzma', 'c:\\python\\python38\\lib\\lzma.py', 'PYMODULE'),
  ('_compression', 'c:\\python\\python38\\lib\\_compression.py', 'PYMODULE'),
  ('bz2', 'c:\\python\\python38\\lib\\bz2.py', 'PYMODULE'),
  ('importlib.util',
   'c:\\python\\python38\\lib\\importlib\\util.py',
   'PYMODULE'),
  ('pathlib', 'c:\\python\\python38\\lib\\pathlib.py', 'PYMODULE'),
  ('urllib.parse', 'c:\\python\\python38\\lib\\urllib\\parse.py', 'PYMODULE'),
  ('urllib', 'c:\\python\\python38\\lib\\urllib\\__init__.py', 'PYMODULE'),
  ('fnmatch', 'c:\\python\\python38\\lib\\fnmatch.py', 'PYMODULE'),
  ('email', 'c:\\python\\python38\\lib\\email\\__init__.py', 'PYMODULE'),
  ('email.parser', 'c:\\python\\python38\\lib\\email\\parser.py', 'PYMODULE'),
  ('email._policybase',
   'c:\\python\\python38\\lib\\email\\_policybase.py',
   'PYMODULE'),
  ('email.utils', 'c:\\python\\python38\\lib\\email\\utils.py', 'PYMODULE'),
  ('email._parseaddr',
   'c:\\python\\python38\\lib\\email\\_parseaddr.py',
   'PYMODULE'),
  ('calendar', 'c:\\python\\python38\\lib\\calendar.py', 'PYMODULE'),
  ('socket', 'c:\\python\\python38\\lib\\socket.py', 'PYMODULE'),
  ('selectors', 'c:\\python\\python38\\lib\\selectors.py', 'PYMODULE'),
  ('random', 'c:\\python\\python38\\lib\\random.py', 'PYMODULE'),
  ('hashlib', 'c:\\python\\python38\\lib\\hashlib.py', 'PYMODULE'),
  ('bisect', 'c:\\python\\python38\\lib\\bisect.py', 'PYMODULE'),
  ('email.feedparser',
   'c:\\python\\python38\\lib\\email\\feedparser.py',
   'PYMODULE'),
  ('email.message', 'c:\\python\\python38\\lib\\email\\message.py', 'PYMODULE'),
  ('email.policy', 'c:\\python\\python38\\lib\\email\\policy.py', 'PYMODULE'),
  ('email.contentmanager',
   'c:\\python\\python38\\lib\\email\\contentmanager.py',
   'PYMODULE'),
  ('email.quoprimime',
   'c:\\python\\python38\\lib\\email\\quoprimime.py',
   'PYMODULE'),
  ('email.headerregistry',
   'c:\\python\\python38\\lib\\email\\headerregistry.py',
   'PYMODULE'),
  ('email.iterators',
   'c:\\python\\python38\\lib\\email\\iterators.py',
   'PYMODULE'),
  ('email.generator',
   'c:\\python\\python38\\lib\\email\\generator.py',
   'PYMODULE'),
  ('email._encoded_words',
   'c:\\python\\python38\\lib\\email\\_encoded_words.py',
   'PYMODULE'),
  ('base64', 'c:\\python\\python38\\lib\\base64.py', 'PYMODULE'),
  ('quopri', 'c:\\python\\python38\\lib\\quopri.py', 'PYMODULE'),
  ('uu', 'c:\\python\\python38\\lib\\uu.py', 'PYMODULE'),
  ('optparse', 'c:\\python\\python38\\lib\\optparse.py', 'PYMODULE'),
  ('email._header_value_parser',
   'c:\\python\\python38\\lib\\email\\_header_value_parser.py',
   'PYMODULE'),
  ('email.header', 'c:\\python\\python38\\lib\\email\\header.py', 'PYMODULE'),
  ('email.base64mime',
   'c:\\python\\python38\\lib\\email\\base64mime.py',
   'PYMODULE'),
  ('email.charset', 'c:\\python\\python38\\lib\\email\\charset.py', 'PYMODULE'),
  ('email.encoders',
   'c:\\python\\python38\\lib\\email\\encoders.py',
   'PYMODULE'),
  ('email.errors', 'c:\\python\\python38\\lib\\email\\errors.py', 'PYMODULE'),
  ('csv', 'c:\\python\\python38\\lib\\csv.py', 'PYMODULE'),
  ('tokenize', 'c:\\python\\python38\\lib\\tokenize.py', 'PYMODULE'),
  ('token', 'c:\\python\\python38\\lib\\token.py', 'PYMODULE'),
  ('importlib._bootstrap',
   'c:\\python\\python38\\lib\\importlib\\_bootstrap.py',
   'PYMODULE'),
  ('win32com.client.gencache',
   'c:\\users\\myuser\\envs\\pyarm\\lib\\site-packages\\win32com\\client\\gencache.py',
   'PYMODULE'),
  ('pickle', 'c:\\python\\python38\\lib\\pickle.py', 'PYMODULE'),
  ('pprint', 'c:\\python\\python38\\lib\\pprint.py', 'PYMODULE'),
  ('doctest', 'c:\\python\\python38\\lib\\doctest.py', 'PYMODULE'),
  ('unittest', 'c:\\python\\python38\\lib\\unittest\\__init__.py', 'PYMODULE'),
  ('unittest.signals',
   'c:\\python\\python38\\lib\\unittest\\signals.py',
   'PYMODULE'),
  ('signal', 'c:\\python\\python38\\lib\\signal.py', 'PYMODULE'),
  ('unittest.main', 'c:\\python\\python38\\lib\\unittest\\main.py', 'PYMODULE'),
  ('unittest.runner',
   'c:\\python\\python38\\lib\\unittest\\runner.py',
   'PYMODULE'),
  ('unittest.loader',
   'c:\\python\\python38\\lib\\unittest\\loader.py',
   'PYMODULE'),
  ('unittest.suite',
   'c:\\python\\python38\\lib\\unittest\\suite.py',
   'PYMODULE'),
  ('unittest.case', 'c:\\python\\python38\\lib\\unittest\\case.py', 'PYMODULE'),
  ('unittest.async_case',
   'c:\\python\\python38\\lib\\unittest\\async_case.py',
   'PYMODULE'),
  ('asyncio', 'c:\\python\\python38\\lib\\asyncio\\__init__.py', 'PYMODULE'),
  ('asyncio.unix_events',
   'c:\\python\\python38\\lib\\asyncio\\unix_events.py',
   'PYMODULE'),
  ('asyncio.log', 'c:\\python\\python38\\lib\\asyncio\\log.py', 'PYMODULE'),
  ('subprocess', 'c:\\python\\python38\\lib\\subprocess.py', 'PYMODULE'),
  ('asyncio.windows_events',
   'c:\\python\\python38\\lib\\asyncio\\windows_events.py',
   'PYMODULE'),
  ('asyncio.windows_utils',
   'c:\\python\\python38\\lib\\asyncio\\windows_utils.py',
   'PYMODULE'),
  ('asyncio.selector_events',
   'c:\\python\\python38\\lib\\asyncio\\selector_events.py',
   'PYMODULE'),
  ('ssl', 'c:\\python\\python38\\lib\\ssl.py', 'PYMODULE'),
  ('asyncio.proactor_events',
   'c:\\python\\python38\\lib\\asyncio\\proactor_events.py',
   'PYMODULE'),
  ('asyncio.base_subprocess',
   'c:\\python\\python38\\lib\\asyncio\\base_subprocess.py',
   'PYMODULE'),
  ('asyncio.subprocess',
   'c:\\python\\python38\\lib\\asyncio\\subprocess.py',
   'PYMODULE'),
  ('asyncio.streams',
   'c:\\python\\python38\\lib\\asyncio\\streams.py',
   'PYMODULE'),
  ('asyncio.queues',
   'c:\\python\\python38\\lib\\asyncio\\queues.py',
   'PYMODULE'),
  ('asyncio.runners',
   'c:\\python\\python38\\lib\\asyncio\\runners.py',
   'PYMODULE'),
  ('asyncio.events',
   'c:\\python\\python38\\lib\\asyncio\\events.py',
   'PYMODULE'),
  ('contextvars', 'c:\\python\\python38\\lib\\contextvars.py', 'PYMODULE'),
  ('asyncio.trsock',
   'c:\\python\\python38\\lib\\asyncio\\trsock.py',
   'PYMODULE'),
  ('asyncio.staggered',
   'c:\\python\\python38\\lib\\asyncio\\staggered.py',
   'PYMODULE'),
  ('typing', 'c:\\python\\python38\\lib\\typing.py', 'PYMODULE'),
  ('asyncio.tasks', 'c:\\python\\python38\\lib\\asyncio\\tasks.py', 'PYMODULE'),
  ('concurrent.futures',
   'c:\\python\\python38\\lib\\concurrent\\futures\\__init__.py',
   'PYMODULE'),
  ('concurrent.futures.thread',
   'c:\\python\\python38\\lib\\concurrent\\futures\\thread.py',
   'PYMODULE'),
  ('queue', 'c:\\python\\python38\\lib\\queue.py', 'PYMODULE'),
  ('concurrent.futures.process',
   'c:\\python\\python38\\lib\\concurrent\\futures\\process.py',
   'PYMODULE'),
  ('multiprocessing.queues',
   'c:\\python\\python38\\lib\\multiprocessing\\queues.py',
   'PYMODULE'),
  ('multiprocessing.synchronize',
   'c:\\python\\python38\\lib\\multiprocessing\\synchronize.py',
   'PYMODULE'),
  ('multiprocessing.heap',
   'c:\\python\\python38\\lib\\multiprocessing\\heap.py',
   'PYMODULE'),
  ('multiprocessing.resource_tracker',
   'c:\\python\\python38\\lib\\multiprocessing\\resource_tracker.py',
   'PYMODULE'),
  ('multiprocessing.spawn',
   'c:\\python\\python38\\lib\\multiprocessing\\spawn.py',
   'PYMODULE'),
  ('runpy', 'c:\\python\\python38\\lib\\runpy.py', 'PYMODULE'),
  ('pkgutil', 'c:\\python\\python38\\lib\\pkgutil.py', 'PYMODULE'),
  ('zipimport', 'c:\\python\\python38\\lib\\zipimport.py', 'PYMODULE'),
  ('multiprocessing.process',
   'c:\\python\\python38\\lib\\multiprocessing\\process.py',
   'PYMODULE'),
  ('multiprocessing.util',
   'c:\\python\\python38\\lib\\multiprocessing\\util.py',
   'PYMODULE'),
  ('multiprocessing.forkserver',
   'c:\\python\\python38\\lib\\multiprocessing\\forkserver.py',
   'PYMODULE'),
  ('multiprocessing.context',
   'c:\\python\\python38\\lib\\multiprocessing\\context.py',
   'PYMODULE'),
  ('multiprocessing.popen_spawn_win32',
   'c:\\python\\python38\\lib\\multiprocessing\\popen_spawn_win32.py',
   'PYMODULE'),
  ('multiprocessing.popen_forkserver',
   'c:\\python\\python38\\lib\\multiprocessing\\popen_forkserver.py',
   'PYMODULE'),
  ('multiprocessing.popen_spawn_posix',
   'c:\\python\\python38\\lib\\multiprocessing\\popen_spawn_posix.py',
   'PYMODULE'),
  ('multiprocessing.popen_fork',
   'c:\\python\\python38\\lib\\multiprocessing\\popen_fork.py',
   'PYMODULE'),
  ('multiprocessing.sharedctypes',
   'c:\\python\\python38\\lib\\multiprocessing\\sharedctypes.py',
   'PYMODULE'),
  ('ctypes', 'c:\\python\\python38\\lib\\ctypes\\__init__.py', 'PYMODULE'),
  ('ctypes._endian',
   'c:\\python\\python38\\lib\\ctypes\\_endian.py',
   'PYMODULE'),
  ('multiprocessing.pool',
   'c:\\python\\python38\\lib\\multiprocessing\\pool.py',
   'PYMODULE'),
  ('multiprocessing.dummy',
   'c:\\python\\python38\\lib\\multiprocessing\\dummy\\__init__.py',
   'PYMODULE'),
  ('multiprocessing.dummy.connection',
   'c:\\python\\python38\\lib\\multiprocessing\\dummy\\connection.py',
   'PYMODULE'),
  ('multiprocessing.managers',
   'c:\\python\\python38\\lib\\multiprocessing\\managers.py',
   'PYMODULE'),
  ('multiprocessing.shared_memory',
   'c:\\python\\python38\\lib\\multiprocessing\\shared_memory.py',
   'PYMODULE'),
  ('secrets', 'c:\\python\\python38\\lib\\secrets.py', 'PYMODULE'),
  ('hmac', 'c:\\python\\python38\\lib\\hmac.py', 'PYMODULE'),
  ('multiprocessing.reduction',
   'c:\\python\\python38\\lib\\multiprocessing\\reduction.py',
   'PYMODULE'),
  ('multiprocessing.resource_sharer',
   'c:\\python\\python38\\lib\\multiprocessing\\resource_sharer.py',
   'PYMODULE'),
  ('multiprocessing.connection',
   'c:\\python\\python38\\lib\\multiprocessing\\connection.py',
   'PYMODULE'),
  ('xmlrpc.client', 'c:\\python\\python38\\lib\\xmlrpc\\client.py', 'PYMODULE'),
  ('xmlrpc', 'c:\\python\\python38\\lib\\xmlrpc\\__init__.py', 'PYMODULE'),
  ('gzip', 'c:\\python\\python38\\lib\\gzip.py', 'PYMODULE'),
  ('xml.parsers.expat',
   'c:\\python\\python38\\lib\\xml\\parsers\\expat.py',
   'PYMODULE'),
  ('xml.parsers',
   'c:\\python\\python38\\lib\\xml\\parsers\\__init__.py',
   'PYMODULE'),
  ('xml', 'c:\\python\\python38\\lib\\xml\\__init__.py', 'PYMODULE'),
  ('xml.sax.expatreader',
   'c:\\python\\python38\\lib\\xml\\sax\\expatreader.py',
   'PYMODULE'),
  ('xml.sax.saxutils',
   'c:\\python\\python38\\lib\\xml\\sax\\saxutils.py',
   'PYMODULE'),
  ('urllib.request',
   'c:\\python\\python38\\lib\\urllib\\request.py',
   'PYMODULE'),
  ('getpass', 'c:\\python\\python38\\lib\\getpass.py', 'PYMODULE'),
  ('nturl2path', 'c:\\python\\python38\\lib\\nturl2path.py', 'PYMODULE'),
  ('ftplib', 'c:\\python\\python38\\lib\\ftplib.py', 'PYMODULE'),
  ('netrc', 'c:\\python\\python38\\lib\\netrc.py', 'PYMODULE'),
  ('shlex', 'c:\\python\\python38\\lib\\shlex.py', 'PYMODULE'),
  ('mimetypes', 'c:\\python\\python38\\lib\\mimetypes.py', 'PYMODULE'),
  ('http.cookiejar',
   'c:\\python\\python38\\lib\\http\\cookiejar.py',
   'PYMODULE'),
  ('http', 'c:\\python\\python38\\lib\\http\\__init__.py', 'PYMODULE'),
  ('urllib.response',
   'c:\\python\\python38\\lib\\urllib\\response.py',
   'PYMODULE'),
  ('urllib.error', 'c:\\python\\python38\\lib\\urllib\\error.py', 'PYMODULE'),
  ('xml.sax', 'c:\\python\\python38\\lib\\xml\\sax\\__init__.py', 'PYMODULE'),
  ('xml.sax.handler',
   'c:\\python\\python38\\lib\\xml\\sax\\handler.py',
   'PYMODULE'),
  ('xml.sax._exceptions',
   'c:\\python\\python38\\lib\\xml\\sax\\_exceptions.py',
   'PYMODULE'),
  ('xml.sax.xmlreader',
   'c:\\python\\python38\\lib\\xml\\sax\\xmlreader.py',
   'PYMODULE'),
  ('http.client', 'c:\\python\\python38\\lib\\http\\client.py', 'PYMODULE'),
  ('decimal', 'c:\\python\\python38\\lib\\decimal.py', 'PYMODULE'),
  ('_pydecimal', 'c:\\python\\python38\\lib\\_pydecimal.py', 'PYMODULE'),
  ('numbers', 'c:\\python\\python38\\lib\\numbers.py', 'PYMODULE'),
  ('multiprocessing',
   'c:\\python\\python38\\lib\\multiprocessing\\__init__.py',
   'PYMODULE'),
  ('concurrent.futures._base',
   'c:\\python\\python38\\lib\\concurrent\\futures\\_base.py',
   'PYMODULE'),
  ('concurrent',
   'c:\\python\\python38\\lib\\concurrent\\__init__.py',
   'PYMODULE'),
  ('asyncio.base_tasks',
   'c:\\python\\python38\\lib\\asyncio\\base_tasks.py',
   'PYMODULE'),
  ('asyncio.locks', 'c:\\python\\python38\\lib\\asyncio\\locks.py', 'PYMODULE'),
  ('asyncio.sslproto',
   'c:\\python\\python38\\lib\\asyncio\\sslproto.py',
   'PYMODULE'),
  ('asyncio.transports',
   'c:\\python\\python38\\lib\\asyncio\\transports.py',
   'PYMODULE'),
  ('asyncio.base_events',
   'c:\\python\\python38\\lib\\asyncio\\base_events.py',
   'PYMODULE'),
  ('asyncio.protocols',
   'c:\\python\\python38\\lib\\asyncio\\protocols.py',
   'PYMODULE'),
  ('asyncio.futures',
   'c:\\python\\python38\\lib\\asyncio\\futures.py',
   'PYMODULE'),
  ('asyncio.coroutines',
   'c:\\python\\python38\\lib\\asyncio\\coroutines.py',
   'PYMODULE'),
  ('asyncio.base_futures',
   'c:\\python\\python38\\lib\\asyncio\\base_futures.py',
   'PYMODULE'),
  ('asyncio.exceptions',
   'c:\\python\\python38\\lib\\asyncio\\exceptions.py',
   'PYMODULE'),
  ('asyncio.format_helpers',
   'c:\\python\\python38\\lib\\asyncio\\format_helpers.py',
   'PYMODULE'),
  ('asyncio.constants',
   'c:\\python\\python38\\lib\\asyncio\\constants.py',
   'PYMODULE'),
  ('unittest.result',
   'c:\\python\\python38\\lib\\unittest\\result.py',
   'PYMODULE'),
  ('unittest.util', 'c:\\python\\python38\\lib\\unittest\\util.py', 'PYMODULE'),
  ('pdb', 'c:\\python\\python38\\lib\\pdb.py', 'PYMODULE'),
  ('pydoc', 'c:\\python\\python38\\lib\\pydoc.py', 'PYMODULE'),
  ('webbrowser', 'c:\\python\\python38\\lib\\webbrowser.py', 'PYMODULE'),
  ('http.server', 'c:\\python\\python38\\lib\\http\\server.py', 'PYMODULE'),
  ('socketserver', 'c:\\python\\python38\\lib\\socketserver.py', 'PYMODULE'),
  ('html', 'c:\\python\\python38\\lib\\html\\__init__.py', 'PYMODULE'),
  ('html.entities', 'c:\\python\\python38\\lib\\html\\entities.py', 'PYMODULE'),
  ('pydoc_data.topics',
   'c:\\python\\python38\\lib\\pydoc_data\\topics.py',
   'PYMODULE'),
  ('pydoc_data',
   'c:\\python\\python38\\lib\\pydoc_data\\__init__.py',
   'PYMODULE'),
  ('tty', 'c:\\python\\python38\\lib\\tty.py', 'PYMODULE'),
  ('sysconfig', 'c:\\python\\python38\\lib\\sysconfig.py', 'PYMODULE'),
  ('_osx_support', 'c:\\python\\python38\\lib\\_osx_support.py', 'PYMODULE'),
  ('distutils.log', 'c:\\python\\python38\\lib\\distutils\\log.py', 'PYMODULE'),
  ('distutils',
   'c:\\python\\python38\\lib\\distutils\\__init__.py',
   'PYMODULE'),
  ('distutils.archive_util',
   'c:\\python\\python38\\lib\\distutils\\archive_util.py',
   'PYMODULE'),
  ('tarfile', 'c:\\python\\python38\\lib\\tarfile.py', 'PYMODULE'),
  ('distutils.dir_util',
   'c:\\python\\python38\\lib\\distutils\\dir_util.py',
   'PYMODULE'),
  ('distutils.file_util',
   'c:\\python\\python38\\lib\\distutils\\file_util.py',
   'PYMODULE'),
  ('distutils.dep_util',
   'c:\\python\\python38\\lib\\distutils\\dep_util.py',
   'PYMODULE'),
  ('distutils.spawn',
   'c:\\python\\python38\\lib\\distutils\\spawn.py',
   'PYMODULE'),
  ('distutils.debug',
   'c:\\python\\python38\\lib\\distutils\\debug.py',
   'PYMODULE'),
  ('distutils.errors',
   'c:\\python\\python38\\lib\\distutils\\errors.py',
   'PYMODULE'),
  ('distutils.ccompiler',
   'c:\\python\\python38\\lib\\distutils\\ccompiler.py',
   'PYMODULE'),
  ('distutils.fancy_getopt',
   'c:\\python\\python38\\lib\\distutils\\fancy_getopt.py',
   'PYMODULE'),
  ('distutils.util',
   'c:\\python\\python38\\lib\\distutils\\util.py',
   'PYMODULE'),
  ('distutils.filelist',
   'c:\\python\\python38\\lib\\distutils\\filelist.py',
   'PYMODULE'),
  ('distutils.sysconfig',
   'c:\\python\\python38\\lib\\distutils\\sysconfig.py',
   'PYMODULE'),
  ('distutils.text_file',
   'c:\\python\\python38\\lib\\distutils\\text_file.py',
   'PYMODULE'),
  ('platform', 'c:\\python\\python38\\lib\\platform.py', 'PYMODULE'),
  ('plistlib', 'c:\\python\\python38\\lib\\plistlib.py', 'PYMODULE'),
  ('code', 'c:\\python\\python38\\lib\\code.py', 'PYMODULE'),
  ('codeop', 'c:\\python\\python38\\lib\\codeop.py', 'PYMODULE'),
  ('dis', 'c:\\python\\python38\\lib\\dis.py', 'PYMODULE'),
  ('opcode', 'c:\\python\\python38\\lib\\opcode.py', 'PYMODULE'),
  ('bdb', 'c:\\python\\python38\\lib\\bdb.py', 'PYMODULE'),
  ('cmd', 'c:\\python\\python38\\lib\\cmd.py', 'PYMODULE'),
  ('inspect', 'c:\\python\\python38\\lib\\inspect.py', 'PYMODULE'),
  ('ast', 'c:\\python\\python38\\lib\\ast.py', 'PYMODULE'),
  ('difflib', 'c:\\python\\python38\\lib\\difflib.py', 'PYMODULE'),
  ('__future__', 'c:\\python\\python38\\lib\\__future__.py', 'PYMODULE'),
  ('_compat_pickle',
   'c:\\python\\python38\\lib\\_compat_pickle.py',
   'PYMODULE'),
  ('glob', 'c:\\python\\python38\\lib\\glob.py', 'PYMODULE'),
  ('win32com.client.selecttlb',
   'c:\\users\\myuser\\envs\\pyarm\\lib\\site-packages\\win32com\\client\\selecttlb.py',
   'PYMODULE'),
  ('pywin.dialogs.list',
   'c:\\users\\myuser\\envs\\pyarm\\lib\\site-packages\\Pythonwin\\pywin\\dialogs\\list.py',
   'PYMODULE'),
  ('commctrl',
   'c:\\users\\myuser\\envs\\pyarm\\lib\\site-packages\\win32\\lib\\commctrl.py',
   'PYMODULE'),
  ('win32com.client.genpy',
   'c:\\users\\myuser\\envs\\pyarm\\lib\\site-packages\\win32com\\client\\genpy.py',
   'PYMODULE'),
  ('win32com.client.CLSIDToClass',
   'c:\\users\\myuser\\envs\\pyarm\\lib\\site-packages\\win32com\\client\\CLSIDToClass.py',
   'PYMODULE'),
  ('win32com.client.dynamic',
   'c:\\users\\myuser\\envs\\pyarm\\lib\\site-packages\\win32com\\client\\dynamic.py',
   'PYMODULE'),
  ('win32com.client.build',
   'c:\\users\\myuser\\envs\\pyarm\\lib\\site-packages\\win32com\\client\\build.py',
   'PYMODULE'),
  ('pywintypes',
   'c:\\users\\myuser\\envs\\pyarm\\lib\\site-packages\\win32\\lib\\pywintypes.py',
   'PYMODULE'),
  ('win32com.server',
   'c:\\users\\myuser\\envs\\pyarm\\lib\\site-packages\\win32com\\server\\__init__.py',
   'PYMODULE'),
  ('win32com.universal',
   'c:\\users\\myuser\\envs\\pyarm\\lib\\site-packages\\win32com\\universal.py',
   'PYMODULE'),
  ('win32com.client.util',
   'c:\\users\\myuser\\envs\\pyarm\\lib\\site-packages\\win32com\\client\\util.py',
   'PYMODULE'),
  ('pythoncom',
   'c:\\users\\myuser\\envs\\pyarm\\lib\\site-packages\\pythoncom.py',
   'PYMODULE'),
  ('tempfile', 'c:\\python\\python38\\lib\\tempfile.py', 'PYMODULE'),
  ('shutil', 'c:\\python\\python38\\lib\\shutil.py', 'PYMODULE'),
  ('pkg_resources',
   'c:\\users\\myuser\\envs\\pyarm\\lib\\site-packages\\pkg_resources\\__init__.py',
   'PYMODULE'),
  ('packaging.tags',
   'c:\\users\\myuser\\envs\\pyarm\\lib\\site-packages\\packaging\\tags.py',
   'PYMODULE'),
  ('packaging._compat',
   'c:\\users\\myuser\\envs\\pyarm\\lib\\site-packages\\packaging\\_compat.py',
   'PYMODULE'),
  ('packaging.markers',
   'c:\\users\\myuser\\envs\\pyarm\\lib\\site-packages\\packaging\\markers.py',
   'PYMODULE'),
  ('pyparsing',
   'c:\\users\\myuser\\envs\\pyarm\\lib\\site-packages\\pyparsing.py',
   'PYMODULE'),
  ('uuid', 'c:\\python\\python38\\lib\\uuid.py', 'PYMODULE'),
  ('ctypes.util', 'c:\\python\\python38\\lib\\ctypes\\util.py', 'PYMODULE'),
  ('ctypes._aix', 'c:\\python\\python38\\lib\\ctypes\\_aix.py', 'PYMODULE'),
  ('ctypes.macholib.dyld',
   'c:\\python\\python38\\lib\\ctypes\\macholib\\dyld.py',
   'PYMODULE'),
  ('ctypes.macholib',
   'c:\\python\\python38\\lib\\ctypes\\macholib\\__init__.py',
   'PYMODULE'),
  ('ctypes.macholib.dylib',
   'c:\\python\\python38\\lib\\ctypes\\macholib\\dylib.py',
   'PYMODULE'),
  ('ctypes.macholib.framework',
   'c:\\python\\python38\\lib\\ctypes\\macholib\\framework.py',
   'PYMODULE'),
  ('netbios',
   'c:\\users\\myuser\\envs\\pyarm\\lib\\site-packages\\win32\\lib\\netbios.py',
   'PYMODULE'),
  ('packaging',
   'c:\\users\\myuser\\envs\\pyarm\\lib\\site-packages\\packaging\\__init__.py',
   'PYMODULE'),
  ('packaging.version',
   'c:\\users\\myuser\\envs\\pyarm\\lib\\site-packages\\packaging\\version.py',
   'PYMODULE'),
  ('packaging.requirements',
   'c:\\users\\myuser\\envs\\pyarm\\lib\\site-packages\\packaging\\requirements.py',
   'PYMODULE'),
  ('packaging._structures',
   'c:\\users\\myuser\\envs\\pyarm\\lib\\site-packages\\packaging\\_structures.py',
   'PYMODULE'),
  ('packaging.utils',
   'c:\\users\\myuser\\envs\\pyarm\\lib\\site-packages\\packaging\\utils.py',
   'PYMODULE'),
  ('packaging.__about__',
   'c:\\users\\myuser\\envs\\pyarm\\lib\\site-packages\\packaging\\__about__.py',
   'PYMODULE'),
  ('packaging._typing',
   'c:\\users\\myuser\\envs\\pyarm\\lib\\site-packages\\packaging\\_typing.py',
   'PYMODULE'),
  ('packaging.specifiers',
   'c:\\users\\myuser\\envs\\pyarm\\lib\\site-packages\\packaging\\specifiers.py',
   'PYMODULE'),
  ('pkg_resources._vendor.packaging.version',
   'c:\\users\\myuser\\envs\\pyarm\\lib\\site-packages\\pkg_resources\\_vendor\\packaging\\version.py',
   'PYMODULE'),
  ('pkg_resources._vendor.packaging.markers',
   'c:\\users\\myuser\\envs\\pyarm\\lib\\site-packages\\pkg_resources\\_vendor\\packaging\\markers.py',
   'PYMODULE'),
  ('pkg_resources._vendor.packaging._compat',
   'c:\\users\\myuser\\envs\\pyarm\\lib\\site-packages\\pkg_resources\\_vendor\\packaging\\_compat.py',
   'PYMODULE'),
  ('pkg_resources._vendor.appdirs',
   'c:\\users\\myuser\\envs\\pyarm\\lib\\site-packages\\pkg_resources\\_vendor\\appdirs.py',
   'PYMODULE'),
  ('win32com.shell.shellcon',
   'c:\\users\\myuser\\envs\\pyarm\\lib\\site-packages\\win32comext\\shell\\shellcon.py',
   'PYMODULE'),
  ('win32com.shell',
   'c:\\users\\myuser\\envs\\pyarm\\lib\\site-packages\\win32comext\\shell\\__init__.py',
   'PYMODULE'),
  ('pkg_resources._vendor.packaging',
   'c:\\users\\myuser\\envs\\pyarm\\lib\\site-packages\\pkg_resources\\_vendor\\packaging\\__init__.py',
   'PYMODULE'),
  ('pkg_resources._vendor.packaging.utils',
   'c:\\users\\myuser\\envs\\pyarm\\lib\\site-packages\\pkg_resources\\_vendor\\packaging\\utils.py',
   'PYMODULE'),
  ('pkg_resources._vendor.packaging.tags',
   'c:\\users\\myuser\\envs\\pyarm\\lib\\site-packages\\pkg_resources\\_vendor\\packaging\\tags.py',
   'PYMODULE'),
  ('pkg_resources._vendor.pyparsing',
   'c:\\users\\myuser\\envs\\pyarm\\lib\\site-packages\\pkg_resources\\_vendor\\pyparsing.py',
   'PYMODULE'),
  ('pkg_resources._vendor',
   'c:\\users\\myuser\\envs\\pyarm\\lib\\site-packages\\pkg_resources\\_vendor\\__init__.py',
   'PYMODULE'),
  ('pkg_resources._vendor.packaging._structures',
   'c:\\users\\myuser\\envs\\pyarm\\lib\\site-packages\\pkg_resources\\_vendor\\packaging\\_structures.py',
   'PYMODULE'),
  ('pkg_resources._vendor.packaging.__about__',
   'c:\\users\\myuser\\envs\\pyarm\\lib\\site-packages\\pkg_resources\\_vendor\\packaging\\__about__.py',
   'PYMODULE'),
  ('pkg_resources._vendor.packaging.requirements',
   'c:\\users\\myuser\\envs\\pyarm\\lib\\site-packages\\pkg_resources\\_vendor\\packaging\\requirements.py',
   'PYMODULE'),
  ('pkg_resources._vendor.packaging.specifiers',
   'c:\\users\\myuser\\envs\\pyarm\\lib\\site-packages\\pkg_resources\\_vendor\\packaging\\specifiers.py',
   'PYMODULE'),
  ('pkg_resources._vendor.packaging._typing',
   'c:\\users\\myuser\\envs\\pyarm\\lib\\site-packages\\pkg_resources\\_vendor\\packaging\\_typing.py',
   'PYMODULE'),
  ('pkg_resources.extern',
   'c:\\users\\myuser\\envs\\pyarm\\lib\\site-packages\\pkg_resources\\extern\\__init__.py',
   'PYMODULE'),
  ('imp', 'c:\\python\\python38\\lib\\imp.py', 'PYMODULE'),
  ('tracemalloc', 'c:\\python\\python38\\lib\\tracemalloc.py', 'PYMODULE'),
  ('_py_abc', 'c:\\python\\python38\\lib\\_py_abc.py', 'PYMODULE'),
  ('stringprep', 'c:\\python\\python38\\lib\\stringprep.py', 'PYMODULE'),
  ('datetime', 'c:\\python\\python38\\lib\\datetime.py', 'PYMODULE'),
  ('_strptime', 'c:\\python\\python38\\lib\\_strptime.py', 'PYMODULE'),
  ('threading', 'c:\\python\\python38\\lib\\threading.py', 'PYMODULE'),
  ('_threading_local',
   'c:\\python\\python38\\lib\\_threading_local.py',
   'PYMODULE'),
  ('schedule',
   'c:\\users\\myuser\\envs\\pyarm\\lib\\site-packages\\schedule\\__init__.py',
   'PYMODULE'),
  ('configparser', 'c:\\python\\python38\\lib\\configparser.py', 'PYMODULE'),
  ('logging.handlers',
   'c:\\python\\python38\\lib\\logging\\handlers.py',
   'PYMODULE'),
  ('win32evtlogutil',
   'c:\\users\\myuser\\envs\\pyarm\\lib\\site-packages\\win32\\lib\\win32evtlogutil.py',
   'PYMODULE'),
  ('smtplib', 'c:\\python\\python38\\lib\\smtplib.py', 'PYMODULE'),
  ('logging', 'c:\\python\\python38\\lib\\logging\\__init__.py', 'PYMODULE'),
  ('psycopg2',
   'c:\\users\\myuser\\envs\\pyarm\\lib\\site-packages\\psycopg2\\__init__.py',
   'PYMODULE'),
  ('psycopg2.extensions',
   'c:\\users\\myuser\\envs\\pyarm\\lib\\site-packages\\psycopg2\\extensions.py',
   'PYMODULE'),
  ('psycopg2._range',
   'c:\\users\\myuser\\envs\\pyarm\\lib\\site-packages\\psycopg2\\_range.py',
   'PYMODULE'),
  ('psycopg2.extras',
   'c:\\users\\myuser\\envs\\pyarm\\lib\\site-packages\\psycopg2\\extras.py',
   'PYMODULE'),
  ('psycopg2.sql',
   'c:\\users\\myuser\\envs\\pyarm\\lib\\site-packages\\psycopg2\\sql.py',
   'PYMODULE'),
  ('psycopg2._ipaddress',
   'c:\\users\\myuser\\envs\\pyarm\\lib\\site-packages\\psycopg2\\_ipaddress.py',
   'PYMODULE'),
  ('ipaddress', 'c:\\python\\python38\\lib\\ipaddress.py', 'PYMODULE'),
  ('psycopg2.compat',
   'c:\\users\\myuser\\envs\\pyarm\\lib\\site-packages\\psycopg2\\compat.py',
   'PYMODULE'),
  ('psycopg2._lru_cache',
   'c:\\users\\myuser\\envs\\pyarm\\lib\\site-packages\\psycopg2\\_lru_cache.py',
   'PYMODULE'),
  ('psycopg2._json',
   'c:\\users\\myuser\\envs\\pyarm\\lib\\site-packages\\psycopg2\\_json.py',
   'PYMODULE'),
  ('json', 'c:\\python\\python38\\lib\\json\\__init__.py', 'PYMODULE'),
  ('json.encoder', 'c:\\python\\python38\\lib\\json\\encoder.py', 'PYMODULE'),
  ('json.decoder', 'c:\\python\\python38\\lib\\json\\decoder.py', 'PYMODULE'),
  ('json.scanner', 'c:\\python\\python38\\lib\\json\\scanner.py', 'PYMODULE'),
  ('psycopg2.tz',
   'c:\\users\\myuser\\envs\\pyarm\\lib\\site-packages\\psycopg2\\tz.py',
   'PYMODULE'),
  ('filemanager',
   'C:\\Users\\MyUser\\Documents\\PyArm\\filemanager.py',
   'PYMODULE'),
  ('ctypes.wintypes',
   'c:\\python\\python38\\lib\\ctypes\\wintypes.py',
   'PYMODULE'),
  ('Crypto.Cipher.AES',
   'c:\\users\\myuser\\envs\\pyarm\\lib\\site-packages\\Crypto\\Cipher\\AES.py',
   'PYMODULE'),
  ('Crypto.Random',
   'c:\\users\\myuser\\envs\\pyarm\\lib\\site-packages\\Crypto\\Random\\__init__.py',
   'PYMODULE'),
  ('Crypto',
   'c:\\users\\myuser\\envs\\pyarm\\lib\\site-packages\\Crypto\\__init__.py',
   'PYMODULE'),
  ('Crypto.Util._cpu_features',
   'c:\\users\\myuser\\envs\\pyarm\\lib\\site-packages\\Crypto\\Util\\_cpu_features.py',
   'PYMODULE'),
  ('Crypto.Util',
   'c:\\users\\myuser\\envs\\pyarm\\lib\\site-packages\\Crypto\\Util\\__init__.py',
   'PYMODULE'),
  ('Crypto.Util._raw_api',
   'c:\\users\\myuser\\envs\\pyarm\\lib\\site-packages\\Crypto\\Util\\_raw_api.py',
   'PYMODULE'),
  ('cffi',
   'c:\\users\\myuser\\envs\\pyarm\\lib\\site-packages\\cffi\\__init__.py',
   'PYMODULE'),
  ('cffi.error',
   'c:\\users\\myuser\\envs\\pyarm\\lib\\site-packages\\cffi\\error.py',
   'PYMODULE'),
  ('cffi.api',
   'c:\\users\\myuser\\envs\\pyarm\\lib\\site-packages\\cffi\\api.py',
   'PYMODULE'),
  ('cffi.recompiler',
   'c:\\users\\myuser\\envs\\pyarm\\lib\\site-packages\\cffi\\recompiler.py',
   'PYMODULE'),
  ('distutils.command.build_ext',
   'c:\\python\\python38\\lib\\distutils\\command\\build_ext.py',
   'PYMODULE'),
  ('distutils.command',
   'c:\\python\\python38\\lib\\distutils\\command\\__init__.py',
   'PYMODULE'),
  ('distutils._msvccompiler',
   'c:\\python\\python38\\lib\\distutils\\_msvccompiler.py',
   'PYMODULE'),
  ('site',
   'c:\\users\\myuser\\envs\\pyarm\\lib\\site-packages\\PyInstaller\\fake-modules\\site.py',
   'PYMODULE'),
  ('distutils.extension',
   'c:\\python\\python38\\lib\\distutils\\extension.py',
   'PYMODULE'),
  ('distutils.core',
   'c:\\python\\python38\\lib\\distutils\\core.py',
   'PYMODULE'),
  ('distutils.config',
   'c:\\python\\python38\\lib\\distutils\\config.py',
   'PYMODULE'),
  ('cgi', 'c:\\python\\python38\\lib\\cgi.py', 'PYMODULE'),
  ('distutils.cmd', 'c:\\python\\python38\\lib\\distutils\\cmd.py', 'PYMODULE'),
  ('distutils.dist',
   'c:\\python\\python38\\lib\\distutils\\dist.py',
   'PYMODULE'),
  ('distutils.versionpredicate',
   'c:\\python\\python38\\lib\\distutils\\versionpredicate.py',
   'PYMODULE'),
  ('distutils.version',
   'c:\\python\\python38\\lib\\distutils\\version.py',
   'PYMODULE'),
  ('distutils.msvc9compiler',
   'c:\\python\\python38\\lib\\distutils\\msvc9compiler.py',
   'PYMODULE'),
  ('cffi.cffi_opcode',
   'c:\\users\\myuser\\envs\\pyarm\\lib\\site-packages\\cffi\\cffi_opcode.py',
   'PYMODULE'),
  ('cffi.verifier',
   'c:\\users\\myuser\\envs\\pyarm\\lib\\site-packages\\cffi\\verifier.py',
   'PYMODULE'),
  ('cffi.lock',
   'c:\\users\\myuser\\envs\\pyarm\\lib\\site-packages\\cffi\\lock.py',
   'PYMODULE'),
  ('_dummy_thread', 'c:\\python\\python38\\lib\\_dummy_thread.py', 'PYMODULE'),
  ('cffi.pkgconfig',
   'c:\\users\\myuser\\envs\\pyarm\\lib\\site-packages\\cffi\\pkgconfig.py',
   'PYMODULE'),
  ('cffi.vengine_cpy',
   'c:\\users\\myuser\\envs\\pyarm\\lib\\site-packages\\cffi\\vengine_cpy.py',
   'PYMODULE'),
  ('cffi.vengine_gen',
   'c:\\users\\myuser\\envs\\pyarm\\lib\\site-packages\\cffi\\vengine_gen.py',
   'PYMODULE'),
  ('cffi.ffiplatform',
   'c:\\users\\myuser\\envs\\pyarm\\lib\\site-packages\\cffi\\ffiplatform.py',
   'PYMODULE'),
  ('setuptools',
   'c:\\users\\myuser\\envs\\pyarm\\lib\\site-packages\\setuptools\\__init__.py',
   'PYMODULE'),
  ('setuptools._vendor.packaging',
   'c:\\users\\myuser\\envs\\pyarm\\lib\\site-packages\\setuptools\\_vendor\\packaging\\__init__.py',
   'PYMODULE'),
  ('setuptools._vendor.packaging.__about__',
   'c:\\users\\myuser\\envs\\pyarm\\lib\\site-packages\\setuptools\\_vendor\\packaging\\__about__.py',
   'PYMODULE'),
  ('setuptools._vendor.packaging._compat',
   'c:\\users\\myuser\\envs\\pyarm\\lib\\site-packages\\setuptools\\_vendor\\packaging\\_compat.py',
   'PYMODULE'),
  ('setuptools._vendor.packaging.requirements',
   'c:\\users\\myuser\\envs\\pyarm\\lib\\site-packages\\setuptools\\_vendor\\packaging\\requirements.py',
   'PYMODULE'),
  ('setuptools._vendor.packaging.tags',
   'c:\\users\\myuser\\envs\\pyarm\\lib\\site-packages\\setuptools\\_vendor\\packaging\\tags.py',
   'PYMODULE'),
  ('setuptools._vendor.more_itertools.recipes',
   'c:\\users\\myuser\\envs\\pyarm\\lib\\site-packages\\setuptools\\_vendor\\more_itertools\\recipes.py',
   'PYMODULE'),
  ('setuptools._vendor',
   'c:\\users\\myuser\\envs\\pyarm\\lib\\site-packages\\setuptools\\_vendor\\__init__.py',
   'PYMODULE'),
  ('setuptools._vendor.packaging.specifiers',
   'c:\\users\\myuser\\envs\\pyarm\\lib\\site-packages\\setuptools\\_vendor\\packaging\\specifiers.py',
   'PYMODULE'),
  ('setuptools._vendor.packaging._structures',
   'c:\\users\\myuser\\envs\\pyarm\\lib\\site-packages\\setuptools\\_vendor\\packaging\\_structures.py',
   'PYMODULE'),
  ('setuptools._vendor.packaging._typing',
   'c:\\users\\myuser\\envs\\pyarm\\lib\\site-packages\\setuptools\\_vendor\\packaging\\_typing.py',
   'PYMODULE'),
  ('setuptools._vendor.pyparsing',
   'c:\\users\\myuser\\envs\\pyarm\\lib\\site-packages\\setuptools\\_vendor\\pyparsing.py',
   'PYMODULE'),
  ('setuptools._vendor.packaging.version',
   'c:\\users\\myuser\\envs\\pyarm\\lib\\site-packages\\setuptools\\_vendor\\packaging\\version.py',
   'PYMODULE'),
  ('setuptools._vendor.ordered_set',
   'c:\\users\\myuser\\envs\\pyarm\\lib\\site-packages\\setuptools\\_vendor\\ordered_set.py',
   'PYMODULE'),
  ('setuptools._vendor.packaging.utils',
   'c:\\users\\myuser\\envs\\pyarm\\lib\\site-packages\\setuptools\\_vendor\\packaging\\utils.py',
   'PYMODULE'),
  ('setuptools._vendor.packaging.markers',
   'c:\\users\\myuser\\envs\\pyarm\\lib\\site-packages\\setuptools\\_vendor\\packaging\\markers.py',
   'PYMODULE'),
  ('setuptools._vendor.more_itertools',
   'c:\\users\\myuser\\envs\\pyarm\\lib\\site-packages\\setuptools\\_vendor\\more_itertools\\__init__.py',
   'PYMODULE'),
  ('setuptools._vendor.more_itertools.more',
   'c:\\users\\myuser\\envs\\pyarm\\lib\\site-packages\\setuptools\\_vendor\\more_itertools\\more.py',
   'PYMODULE'),
  ('setuptools.msvc',
   'c:\\users\\myuser\\envs\\pyarm\\lib\\site-packages\\setuptools\\msvc.py',
   'PYMODULE'),
  ('setuptools.namespaces',
   'c:\\users\\myuser\\envs\\pyarm\\lib\\site-packages\\setuptools\\namespaces.py',
   'PYMODULE'),
  ('setuptools.ssl_support',
   'c:\\users\\myuser\\envs\\pyarm\\lib\\site-packages\\setuptools\\ssl_support.py',
   'PYMODULE'),
  ('setuptools.monkey',
   'c:\\users\\myuser\\envs\\pyarm\\lib\\site-packages\\setuptools\\monkey.py',
   'PYMODULE'),
  ('setuptools.depends',
   'c:\\users\\myuser\\envs\\pyarm\\lib\\site-packages\\setuptools\\depends.py',
   'PYMODULE'),
  ('setuptools._imp',
   'c:\\users\\myuser\\envs\\pyarm\\lib\\site-packages\\setuptools\\_imp.py',
   'PYMODULE'),
  ('setuptools.py34compat',
   'c:\\users\\myuser\\envs\\pyarm\\lib\\site-packages\\setuptools\\py34compat.py',
   'PYMODULE'),
  ('setuptools.dist',
   'c:\\users\\myuser\\envs\\pyarm\\lib\\site-packages\\setuptools\\dist.py',
   'PYMODULE'),
  ('setuptools.installer',
   'c:\\users\\myuser\\envs\\pyarm\\lib\\site-packages\\setuptools\\installer.py',
   'PYMODULE'),
  ('setuptools.wheel',
   'c:\\users\\myuser\\envs\\pyarm\\lib\\site-packages\\setuptools\\wheel.py',
   'PYMODULE'),
  ('setuptools.command.egg_info',
   'c:\\users\\myuser\\envs\\pyarm\\lib\\site-packages\\setuptools\\command\\egg_info.py',
   'PYMODULE'),
  ('setuptools.glob',
   'c:\\users\\myuser\\envs\\pyarm\\lib\\site-packages\\setuptools\\glob.py',
   'PYMODULE'),
  ('setuptools.unicode_utils',
   'c:\\users\\myuser\\envs\\pyarm\\lib\\site-packages\\setuptools\\unicode_utils.py',
   'PYMODULE'),
  ('setuptools.command.bdist_egg',
   'c:\\users\\myuser\\envs\\pyarm\\lib\\site-packages\\setuptools\\command\\bdist_egg.py',
   'PYMODULE'),
  ('setuptools.command.setopt',
   'c:\\users\\myuser\\envs\\pyarm\\lib\\site-packages\\setuptools\\command\\setopt.py',
   'PYMODULE'),
  ('setuptools.command.sdist',
   'c:\\users\\myuser\\envs\\pyarm\\lib\\site-packages\\setuptools\\command\\sdist.py',
   'PYMODULE'),
  ('setuptools.command.py36compat',
   'c:\\users\\myuser\\envs\\pyarm\\lib\\site-packages\\setuptools\\command\\py36compat.py',
   'PYMODULE'),
  ('distutils.command.sdist',
   'c:\\python\\python38\\lib\\distutils\\command\\sdist.py',
   'PYMODULE'),
  ('setuptools.config',
   'c:\\users\\myuser\\envs\\pyarm\\lib\\site-packages\\setuptools\\config.py',
   'PYMODULE'),
  ('setuptools.command',
   'c:\\users\\myuser\\envs\\pyarm\\lib\\site-packages\\setuptools\\command\\__init__.py',
   'PYMODULE'),
  ('setuptools.command.easy_install',
   'c:\\users\\myuser\\envs\\pyarm\\lib\\site-packages\\setuptools\\command\\easy_install.py',
   'PYMODULE'),
  ('setuptools.package_index',
   'c:\\users\\myuser\\envs\\pyarm\\lib\\site-packages\\setuptools\\package_index.py',
   'PYMODULE'),
  ('setuptools.archive_util',
   'c:\\users\\myuser\\envs\\pyarm\\lib\\site-packages\\setuptools\\archive_util.py',
   'PYMODULE'),
  ('setuptools.sandbox',
   'c:\\users\\myuser\\envs\\pyarm\\lib\\site-packages\\setuptools\\sandbox.py',
   'PYMODULE'),
  ('distutils.command.build_scripts',
   'c:\\python\\python38\\lib\\distutils\\command\\build_scripts.py',
   'PYMODULE'),
  ('distutils.command.install',
   'c:\\python\\python38\\lib\\distutils\\command\\install.py',
   'PYMODULE'),
  ('distutils.command.bdist',
   'c:\\python\\python38\\lib\\distutils\\command\\bdist.py',
   'PYMODULE'),
  ('setuptools.extern',
   'c:\\users\\myuser\\envs\\pyarm\\lib\\site-packages\\setuptools\\extern\\__init__.py',
   'PYMODULE'),
  ('setuptools.windows_support',
   'c:\\users\\myuser\\envs\\pyarm\\lib\\site-packages\\setuptools\\windows_support.py',
   'PYMODULE'),
  ('setuptools.extension',
   'c:\\users\\myuser\\envs\\pyarm\\lib\\site-packages\\setuptools\\extension.py',
   'PYMODULE'),
  ('setuptools.version',
   'c:\\users\\myuser\\envs\\pyarm\\lib\\site-packages\\setuptools\\version.py',
   'PYMODULE'),
  ('setuptools._deprecation_warning',
   'c:\\users\\myuser\\envs\\pyarm\\lib\\site-packages\\setuptools\\_deprecation_warning.py',
   'PYMODULE'),
  ('_distutils_hack.override',
   'c:\\users\\myuser\\envs\\pyarm\\lib\\site-packages\\_distutils_hack\\override.py',
   'PYMODULE'),
  ('_distutils_hack',
   'c:\\users\\myuser\\envs\\pyarm\\lib\\site-packages\\_distutils_hack\\__init__.py',
   'PYMODULE'),
  ('cffi.cparser',
   'c:\\users\\myuser\\envs\\pyarm\\lib\\site-packages\\cffi\\cparser.py',
   'PYMODULE'),
  ('pycparser.lextab',
   'c:\\users\\myuser\\envs\\pyarm\\lib\\site-packages\\pycparser\\lextab.py',
   'PYMODULE'),
  ('pycparser.yacctab',
   'c:\\users\\myuser\\envs\\pyarm\\lib\\site-packages\\pycparser\\yacctab.py',
   'PYMODULE'),
  ('pycparser',
   'c:\\users\\myuser\\envs\\pyarm\\lib\\site-packages\\pycparser\\__init__.py',
   'PYMODULE'),
  ('pycparser.c_parser',
   'c:\\users\\myuser\\envs\\pyarm\\lib\\site-packages\\pycparser\\c_parser.py',
   'PYMODULE'),
  ('pycparser.ast_transforms',
   'c:\\users\\myuser\\envs\\pyarm\\lib\\site-packages\\pycparser\\ast_transforms.py',
   'PYMODULE'),
  ('pycparser.plyparser',
   'c:\\users\\myuser\\envs\\pyarm\\lib\\site-packages\\pycparser\\plyparser.py',
   'PYMODULE'),
  ('pycparser.c_lexer',
   'c:\\users\\myuser\\envs\\pyarm\\lib\\site-packages\\pycparser\\c_lexer.py',
   'PYMODULE'),
  ('pycparser.ply.lex',
   'c:\\users\\myuser\\envs\\pyarm\\lib\\site-packages\\pycparser\\ply\\lex.py',
   'PYMODULE'),
  ('pycparser.ply.yacc',
   'c:\\users\\myuser\\envs\\pyarm\\lib\\site-packages\\pycparser\\ply\\yacc.py',
   'PYMODULE'),
  ('pycparser.ply',
   'c:\\users\\myuser\\envs\\pyarm\\lib\\site-packages\\pycparser\\ply\\__init__.py',
   'PYMODULE'),
  ('pycparser.c_ast',
   'c:\\users\\myuser\\envs\\pyarm\\lib\\site-packages\\pycparser\\c_ast.py',
   'PYMODULE'),
  ('cffi.commontypes',
   'c:\\users\\myuser\\envs\\pyarm\\lib\\site-packages\\cffi\\commontypes.py',
   'PYMODULE'),
  ('cffi.model',
   'c:\\users\\myuser\\envs\\pyarm\\lib\\site-packages\\cffi\\model.py',
   'PYMODULE'),
  ('Crypto.Util._file_system',
   'c:\\users\\myuser\\envs\\pyarm\\lib\\site-packages\\Crypto\\Util\\_file_system.py',
   'PYMODULE'),
  ('Crypto.Util.py3compat',
   'c:\\users\\myuser\\envs\\pyarm\\lib\\site-packages\\Crypto\\Util\\py3compat.py',
   'PYMODULE'),
  ('Crypto.Cipher',
   'c:\\users\\myuser\\envs\\pyarm\\lib\\site-packages\\Crypto\\Cipher\\__init__.py',
   'PYMODULE'),
  ('Crypto.Cipher._mode_ocb',
   'c:\\users\\myuser\\envs\\pyarm\\lib\\site-packages\\Crypto\\Cipher\\_mode_ocb.py',
   'PYMODULE'),
  ('Crypto.Hash.BLAKE2s',
   'c:\\users\\myuser\\envs\\pyarm\\lib\\site-packages\\Crypto\\Hash\\BLAKE2s.py',
   'PYMODULE'),
  ('Crypto.Hash',
   'c:\\users\\myuser\\envs\\pyarm\\lib\\site-packages\\Crypto\\Hash\\__init__.py',
   'PYMODULE'),
  ('Crypto.Hash.HMAC',
   'c:\\users\\myuser\\envs\\pyarm\\lib\\site-packages\\Crypto\\Hash\\HMAC.py',
   'PYMODULE'),
  ('Crypto.Hash.MD5',
   'c:\\users\\myuser\\envs\\pyarm\\lib\\site-packages\\Crypto\\Hash\\MD5.py',
   'PYMODULE'),
  ('Crypto.Hash.SHA256',
   'c:\\users\\myuser\\envs\\pyarm\\lib\\site-packages\\Crypto\\Hash\\SHA256.py',
   'PYMODULE'),
  ('Crypto.Hash.SHA1',
   'c:\\users\\myuser\\envs\\pyarm\\lib\\site-packages\\Crypto\\Hash\\SHA1.py',
   'PYMODULE'),
  ('Crypto.Hash.CMAC',
   'c:\\users\\myuser\\envs\\pyarm\\lib\\site-packages\\Crypto\\Hash\\CMAC.py',
   'PYMODULE'),
  ('Crypto.Util.strxor',
   'c:\\users\\myuser\\envs\\pyarm\\lib\\site-packages\\Crypto\\Util\\strxor.py',
   'PYMODULE'),
  ('Crypto.Util.number',
   'c:\\users\\myuser\\envs\\pyarm\\lib\\site-packages\\Crypto\\Util\\number.py',
   'PYMODULE'),
  ('Crypto.Cipher._mode_gcm',
   'c:\\users\\myuser\\envs\\pyarm\\lib\\site-packages\\Crypto\\Cipher\\_mode_gcm.py',
   'PYMODULE'),
  ('Crypto.Cipher._mode_siv',
   'c:\\users\\myuser\\envs\\pyarm\\lib\\site-packages\\Crypto\\Cipher\\_mode_siv.py',
   'PYMODULE'),
  ('Crypto.Protocol.KDF',
   'c:\\users\\myuser\\envs\\pyarm\\lib\\site-packages\\Crypto\\Protocol\\KDF.py',
   'PYMODULE'),
  ('Crypto.Protocol',
   'c:\\users\\myuser\\envs\\pyarm\\lib\\site-packages\\Crypto\\Protocol\\__init__.py',
   'PYMODULE'),
  ('Crypto.Cipher._EKSBlowfish',
   'c:\\users\\myuser\\envs\\pyarm\\lib\\site-packages\\Crypto\\Cipher\\_EKSBlowfish.py',
   'PYMODULE'),
  ('Crypto.Cipher._mode_eax',
   'c:\\users\\myuser\\envs\\pyarm\\lib\\site-packages\\Crypto\\Cipher\\_mode_eax.py',
   'PYMODULE'),
  ('Crypto.Cipher._mode_ccm',
   'c:\\users\\myuser\\envs\\pyarm\\lib\\site-packages\\Crypto\\Cipher\\_mode_ccm.py',
   'PYMODULE'),
  ('Crypto.Cipher._mode_openpgp',
   'c:\\users\\myuser\\envs\\pyarm\\lib\\site-packages\\Crypto\\Cipher\\_mode_openpgp.py',
   'PYMODULE'),
  ('Crypto.Cipher._mode_ctr',
   'c:\\users\\myuser\\envs\\pyarm\\lib\\site-packages\\Crypto\\Cipher\\_mode_ctr.py',
   'PYMODULE'),
  ('Crypto.Cipher._mode_ofb',
   'c:\\users\\myuser\\envs\\pyarm\\lib\\site-packages\\Crypto\\Cipher\\_mode_ofb.py',
   'PYMODULE'),
  ('Crypto.Cipher._mode_cfb',
   'c:\\users\\myuser\\envs\\pyarm\\lib\\site-packages\\Crypto\\Cipher\\_mode_cfb.py',
   'PYMODULE'),
  ('Crypto.Cipher._mode_cbc',
   'c:\\users\\myuser\\envs\\pyarm\\lib\\site-packages\\Crypto\\Cipher\\_mode_cbc.py',
   'PYMODULE'),
  ('Crypto.Cipher._mode_ecb',
   'c:\\users\\myuser\\envs\\pyarm\\lib\\site-packages\\Crypto\\Cipher\\_mode_ecb.py',
   'PYMODULE'),
  ('DatabaseWindow',
   'C:\\Users\\MyUser\\Documents\\PyArm\\DatabaseWindow.py',
   'PYMODULE'),
  ('PyQt5',
   'c:\\users\\myuser\\envs\\pyarm\\lib\\site-packages\\PyQt5\\__init__.py',
   'PYMODULE'),
  ('os', 'c:\\python\\python38\\lib\\os.py', 'PYMODULE')])
